TopLevel/ALU.vcd
$date
  Fri Oct 21 23:31:59 2016
$end
$version
  GHDL v0
$end
$timescale
  1 fs
$end
$var reg 2 ! op_sel[1:0] $end
$var reg 16 " x0[15:0] $end
$var reg 16 # x1[15:0] $end
$var reg 16 $ y[15:0] $end
$var reg 1 % c_flag $end
$var reg 1 & z_flag $end
$var reg 1 ' clk $end
$var reg 1 ( reset $end
$var reg 1 ) c_enable $end
$var reg 1 * z_enable $end
$scope module dut $end
$var reg 2 + op_sel[1:0] $end
$var reg 16 , x0[15:0] $end
$var reg 16 - x1[15:0] $end
$var reg 16 . y[15:0] $end
$var reg 1 / c_enable $end
$var reg 1 0 z_enable $end
$var reg 1 1 clk $end
$var reg 1 2 reset $end
$var reg 1 3 c_flag $end
$var reg 1 4 z_flag $end
$var reg 16 5 add_result[15:0] $end
$var reg 16 6 nand_result[15:0] $end
$var reg 16 7 result[15:0] $end
$var reg 1 8 gnd $end
$var reg 1 9 c_enable_r $end
$var reg 1 : c_sig[0:0] $end
$var reg 1 ; z_sig[0:0] $end
$var reg 1 < c_out[0:0] $end
$var reg 1 = z_out[0:0] $end
$var reg 1 > comparator_result[0:0] $end
$scope module n1 $end
$var reg 16 ? x1[15:0] $end
$var reg 16 @ x0[15:0] $end
$var reg 16 A y[15:0] $end
$upscope $end
$scope module add1 $end
$var reg 16 B a[15:0] $end
$var reg 16 C b[15:0] $end
$var reg 1 D cin $end
$var reg 16 E result[15:0] $end
$var reg 1 F cout $end
$var reg 16 G carry[15:0] $end
$var reg 1 H temp_15 $end
$scope module fa1 $end
$var reg 1 I a $end
$var reg 1 J b $end
$var reg 1 K cin $end
$var reg 1 L s $end
$var reg 1 M cout $end
$upscope $end
$scope module fa2 $end
$var reg 1 N a $end
$var reg 1 O b $end
$var reg 1 P cin $end
$var reg 1 Q s $end
$var reg 1 R cout $end
$upscope $end
$scope module fa3 $end
$var reg 1 S a $end
$var reg 1 T b $end
$var reg 1 U cin $end
$var reg 1 V s $end
$var reg 1 W cout $end
$upscope $end
$scope module fa4 $end
$var reg 1 X a $end
$var reg 1 Y b $end
$var reg 1 Z cin $end
$var reg 1 [ s $end
$var reg 1 \ cout $end
$upscope $end
$scope module fa5 $end
$var reg 1 ] a $end
$var reg 1 ^ b $end
$var reg 1 _ cin $end
$var reg 1 ` s $end
$var reg 1 a cout $end
$upscope $end
$scope module fa6 $end
$var reg 1 b a $end
$var reg 1 c b $end
$var reg 1 d cin $end
$var reg 1 e s $end
$var reg 1 f cout $end
$upscope $end
$scope module fa7 $end
$var reg 1 g a $end
$var reg 1 h b $end
$var reg 1 i cin $end
$var reg 1 j s $end
$var reg 1 k cout $end
$upscope $end
$scope module fa8 $end
$var reg 1 l a $end
$var reg 1 m b $end
$var reg 1 n cin $end
$var reg 1 o s $end
$var reg 1 p cout $end
$upscope $end
$scope module fa9 $end
$var reg 1 q a $end
$var reg 1 r b $end
$var reg 1 s cin $end
$var reg 1 t s $end
$var reg 1 u cout $end
$upscope $end
$scope module fa10 $end
$var reg 1 v a $end
$var reg 1 w b $end
$var reg 1 x cin $end
$var reg 1 y s $end
$var reg 1 z cout $end
$upscope $end
$scope module fa11 $end
$var reg 1 { a $end
$var reg 1 | b $end
$var reg 1 } cin $end
$var reg 1 !" s $end
$var reg 1 "" cout $end
$upscope $end
$scope module fa12 $end
$var reg 1 #" a $end
$var reg 1 $" b $end
$var reg 1 %" cin $end
$var reg 1 &" s $end
$var reg 1 '" cout $end
$upscope $end
$scope module fa13 $end
$var reg 1 (" a $end
$var reg 1 )" b $end
$var reg 1 *" cin $end
$var reg 1 +" s $end
$var reg 1 ," cout $end
$upscope $end
$scope module fa14 $end
$var reg 1 -" a $end
$var reg 1 ." b $end
$var reg 1 /" cin $end
$var reg 1 0" s $end
$var reg 1 1" cout $end
$upscope $end
$scope module fa15 $end
$var reg 1 2" a $end
$var reg 1 3" b $end
$var reg 1 4" cin $end
$var reg 1 5" s $end
$var reg 1 6" cout $end
$upscope $end
$scope module fa16 $end
$var reg 1 7" a $end
$var reg 1 8" b $end
$var reg 1 9" cin $end
$var reg 1 :" s $end
$var reg 1 ;" cout $end
$upscope $end
$upscope $end
$scope module cmp1 $end
$var reg 16 <" x1[15:0] $end
$var reg 16 =" x0[15:0] $end
$var reg 1 >" z $end
$upscope $end
$scope module z $end
$var reg 1 ?" din[0:0] $end
$var reg 1 @" dout[0:0] $end
$var reg 1 A" clk $end
$var reg 1 B" enable $end
$var reg 1 C" reset $end
$upscope $end
$scope module c $end
$var reg 1 D" din[0:0] $end
$var reg 1 E" dout[0:0] $end
$var reg 1 F" clk $end
$var reg 1 G" enable $end
$var reg 1 H" reset $end
$upscope $end
$upscope $end
$enddefinitions $end
#0
b00 !
b0000000000000000 "
b0000000000000000 #
b0000000000000000 $
0%
0&
1'
1(
1)
1*
b00 +
b0000000000000000 ,
b0000000000000000 -
b0000000000000000 .
1/
10
11
12
03
04
b0000000000000000 5
b1111111111111111 6
b0000000000000000 7
08
19
b0 :
b1 ;
b0 <
b0 =
b1 >
b0000000000000000 ?
b0000000000000000 @
b1111111111111111 A
b0000000000000000 B
b0000000000000000 C
0D
b0000000000000000 E
0F
b0000000000000000 G
0H
0I
0J
0K
0L
0M
0N
0O
0P
0Q
0R
0S
0T
0U
0V
0W
0X
0Y
0Z
0[
0\
0]
0^
0_
0`
0a
0b
0c
0d
0e
0f
0g
0h
0i
0j
0k
0l
0m
0n
0o
0p
0q
0r
0s
0t
0u
0v
0w
0x
0y
0z
0{
0|
0}
0!"
0""
0#"
0$"
0%"
0&"
0'"
0("
0)"
0*"
0+"
0,"
0-"
0."
0/"
00"
01"
02"
03"
04"
05"
06"
07"
08"
09"
0:"
0;"
b0000000000000000 <"
b0000000000000000 ="
1>"
b1 ?"
b0 @"
1A"
1B"
1C"
b0 D"
b0 E"
1F"
1G"
1H"
#5000000
0'
b0000000000000000 .
01
0A"
0F"
#10000000
b0000000000000001 "
b0000000000000011 #
b0000000000000100 $
1&
1'
0(
b0000000000000001 ,
b0000000000000011 -
b0000000000000100 .
11
02
14
b0000000000000100 5
b1111111111111110 6
b0000000000000100 7
b0 ;
b1 =
b0 >
b0000000000000001 ?
b0000000000000011 @
b1111111111111110 A
b0000000000000001 B
b0000000000000011 C
b0000000000000100 E
b0000000000000011 G
1I
1J
1M
1O
1P
0Q
1R
1U
1V
b0000000000000001 <"
b0000000000000011 ="
0>"
b0 ?"
b1 @"
1A"
0C"
1F"
0H"
#15000000
0'
b0000000000000100 .
01
0A"
0F"
#20000000
b0000000000000111 #
b0000000000001000 $
0&
1'
b0000000000000111 -
b0000000000001000 .
11
04
b0000000000001000 5
b0000000000001000 7
b0 ;
b0 =
b0000000000000111 @
b0000000000000111 C
b0000000000001000 E
b0000000000000111 G
1T
0V
1W
1Z
1[
b0000000000000111 ="
b0 ?"
b0 @"
1A"
1F"
#25000000
0'
b0000000000001000 .
01
0A"
0F"
#30000000
b1000000000000000 "
b1000000000000000 #
b1000000000000000 $
1'
b1000000000000000 ,
b1000000000000000 -
b1000000000000000 .
11
b1000000000000000 5
b0111111111111111 6
b1000000000000000 7
b1 :
b1 >
b1000000000000000 ?
b1000000000000000 @
b0111111111111111 A
b1000000000000000 B
b1000000000000000 C
b1000000000000000 E
1F
b1000000000000000 G
0I
0J
0M
0O
0P
0Q
0R
0T
0U
0V
0W
0Z
0[
17"
18"
1;"
b1000000000000000 <"
b1000000000000000 ="
1>"
1A"
b1 D"
1F"
#35000000
0'
b1000000000000000 .
01
0A"
0F"
#40000000
b01 !
b0111111111111111 $
1%
1'
b01 +
b0111111111111111 .
11
13
b0111111111111111 7
09
b1 <
1A"
b1 E"
1F"
0G"
#45000000
0'
b0111111111111111 .
01
0A"
0F"
#50000000
b1111111111111111 "
b1111111111111111 #
b0000000000000000 $
1'
b1111111111111111 ,
b1111111111111111 -
b0000000000000000 .
11
b1111111111111110 5
b0000000000000000 6
b0000000000000000 7
b1 ;
b1111111111111111 ?
b1111111111111111 @
b0000000000000000 A
b1111111111111111 B
b1111111111111111 C
b1111111111111110 E
b1111111111111111 G
1H
1I
1J
1M
1N
1O
1P
1Q
1R
1S
1T
1U
1V
1W
1X
1Y
1Z
1[
1\
1]
1^
1_
1`
1a
1b
1c
1d
1e
1f
1g
1h
1i
1j
1k
1l
1m
1n
1o
1p
1q
1r
1s
1t
1u
1v
1w
1x
1y
1z
1{
1|
1}
1!"
1""
1#"
1$"
1%"
1&"
1'"
1("
1)"
1*"
1+"
1,"
1-"
1."
1/"
10"
11"
12"
13"
14"
15"
16"
19"
1:"
b1111111111111111 <"
b1111111111111111 ="
b1 ?"
1A"
1F"
#55000000
0'
b0000000000000000 .
01
0A"
0F"
#60000000
b10 !
b1111111111111000 "
b1111111111111000 #
b1111111111111111 $
1&
1'
b10 +
b1111111111111000 ,
b1111111111111000 -
b1111111111111111 .
11
14
b1111111111110000 5
b0000000000000111 6
b1111111111111111 7
b1 =
b1111111111111000 ?
b1111111111111000 @
b0000000000000111 A
b1111111111111000 B
b1111111111111000 C
b1111111111110000 E
b1111111111111000 G
0I
0J
0M
0N
0O
0P
0Q
0R
0S
0T
0U
0V
0W
0Z
0[
b1111111111111000 <"
b1111111111111000 ="
b1 @"
1A"
1F"
#65000000
0'
b1111111111111111 .
01
0A"
0F"
#70000000
b1111111111111001 "
1'
b1111111111111001 ,
b1111111111111111 .
11
b1111111111110001 5
b0 ;
b0 >
b1111111111111001 ?
b1111111111111001 B
b1111111111110001 E
1I
1L
b1111111111111001 <"
0>"
b0 ?"
1A"
1F"
#75000000
0'
b1111111111111111 .
01
0A"
0F"
#80000000
0&
1'
b1111111111111111 .
11
04
b0 =
b0 @"
1A"
1F"
#85000000
0'
b1111111111111111 .
01
0A"
0F"
#90000000
b00 !
b1000000000000000 "
b0000000000000000 #
b1000000000000000 $
1'
b00 +
b1000000000000000 ,
b0000000000000000 -
b1000000000000000 .
11
b1000000000000000 5
b1111111111111111 6
b1000000000000000 7
19
b0 :
b1000000000000000 ?
b0000000000000000 @
b1111111111111111 A
b1000000000000000 B
b0000000000000000 C
b1000000000000000 E
0F
b0000000000000000 G
1H
0I
0L
0X
0Y
0\
0]
0^
0_
0`
0a
0b
0c
0d
0e
0f
0g
0h
0i
0j
0k
0l
0m
0n
0o
0p
0q
0r
0s
0t
0u
0v
0w
0x
0y
0z
0{
0|
0}
0!"
0""
0#"
0$"
0%"
0&"
0'"
0("
0)"
0*"
0+"
0,"
0-"
0."
0/"
00"
01"
02"
03"
04"
05"
06"
08"
09"
1:"
0;"
b1000000000000000 <"
b0000000000000000 ="
1A"
b0 D"
1F"
1G"
#95000000
0'
b1000000000000000 .
01
0A"
0F"
#100000000
0%
1'
b1000000000000000 .
11
03
b0 <
1A"
b0 E"
1F"
#105000000
0'
b1000000000000000 .
01
0A"
0F"
