TopLevel/TOP_LEVEL.vcd
$date
  Sun Oct 23 23:45:18 2016
$end
$version
  GHDL v0
$end
$timescale
  1 fs
$end
$var reg 1 ! clk $end
$var reg 1 " reset $end
$var reg 16 # cpu_output[15:0] $end
$var reg 16 $ ir[15:0] $end
$var reg 5 % state_id[4:0] $end
$var reg 16 & program_counter[15:0] $end
$scope module dut $end
$var reg 1 ' clk $end
$var reg 1 ( reset $end
$var reg 16 ) cpu_output[15:0] $end
$var reg 16 * ir[15:0] $end
$var reg 16 + program_counter[15:0] $end
$var reg 5 , state_id[4:0] $end
$var reg 1 - carry_flag $end
$var reg 1 . zero_flag $end
$var reg 16 / ir_out[15:0] $end
$var reg 1 0 reg_write $end
$var reg 1 1 pc_write $end
$var reg 1 2 ir_write $end
$var reg 1 3 mem_write $end
$var reg 1 4 mem_read $end
$var reg 1 5 t1_write $end
$var reg 1 6 t2_write $end
$var reg 1 7 t3_write $end
$var reg 1 8 t4_write $end
$var reg 1 9 t5_write $end
$var reg 1 : set_pos_zero_init $end
$var reg 1 ; pe_write $end
$var reg 1 < pe_reg_write $end
$var reg 2 = mux_1_sel[1:0] $end
$var reg 2 > mux_2_sel[1:0] $end
$var reg 2 ? mux_3_sel[1:0] $end
$var reg 3 @ mux_4_sel[2:0] $end
$var reg 2 A mux_5_sel[1:0] $end
$var reg 3 B mux_6_sel[2:0] $end
$var reg 3 C mux_7_sel[2:0] $end
$var reg 2 D alu_control[1:0] $end
$var reg 1 E alu_enable $end
$var reg 1 F c_write $end
$var reg 1 G z_write $end
$scope module cp $end
$var reg 1 H clk $end
$var reg 1 I reset $end
$var reg 1 J carry_flag $end
$var reg 1 K zero_flag $end
$var reg 16 L ir_out[15:0] $end
$var reg 5 M state_id[4:0] $end
$var reg 1 N reg_write $end
$var reg 1 O pc_write $end
$var reg 1 P ir_write $end
$var reg 1 Q mem_write $end
$var reg 1 R mem_read $end
$var reg 1 S t1_write $end
$var reg 1 T t2_write $end
$var reg 1 U t3_write $end
$var reg 1 V t4_write $end
$var reg 1 W t5_write $end
$var reg 1 X set_pos_zero_init $end
$var reg 1 Y pe_write $end
$var reg 1 Z pe_reg_write $end
$var reg 2 [ mux_1_sel[1:0] $end
$var reg 2 \ mux_2_sel[1:0] $end
$var reg 2 ] mux_3_sel[1:0] $end
$var reg 3 ^ mux_4_sel[2:0] $end
$var reg 2 _ mux_5_sel[1:0] $end
$var reg 3 ` mux_6_sel[2:0] $end
$var reg 3 a mux_7_sel[2:0] $end
$var reg 2 b alu_control[1:0] $end
$var reg 1 c alu_enable $end
$var reg 1 d c_write $end
$var reg 1 e z_write $end
$comment state is not handled $end
$comment next_state is not handled $end
$upscope $end
$scope module dp $end
$var reg 1 f clk $end
$var reg 1 g reset $end
$var reg 1 h carry_flag $end
$var reg 1 i zero_flag $end
$var reg 16 j ir_out[15:0] $end
$var reg 16 k cpu_output[15:0] $end
$var reg 16 l program_counter[15:0] $end
$var reg 1 m reg_write $end
$var reg 1 n pc_write $end
$var reg 1 o ir_write $end
$var reg 1 p mem_write $end
$var reg 1 q mem_read $end
$var reg 1 r t1_write $end
$var reg 1 s t2_write $end
$var reg 1 t t3_write $end
$var reg 1 u t4_write $end
$var reg 1 v t5_write $end
$var reg 1 w set_pos_zero_init $end
$var reg 1 x pe_write $end
$var reg 1 y pe_reg_write $end
$var reg 2 z mux_1_sel[1:0] $end
$var reg 2 { mux_2_sel[1:0] $end
$var reg 2 | mux_3_sel[1:0] $end
$var reg 3 } mux_4_sel[2:0] $end
$var reg 2 !" mux_5_sel[1:0] $end
$var reg 3 "" mux_6_sel[2:0] $end
$var reg 3 #" mux_7_sel[2:0] $end
$var reg 2 $" alu_control[1:0] $end
$var reg 1 %" alu_enable $end
$var reg 1 &" c_write $end
$var reg 1 '" z_write $end
$var reg 16 (" ir_out_temp[15:0] $end
$var reg 16 )" data_out[15:0] $end
$var reg 16 *" data_in[15:0] $end
$var reg 16 +" dpc[15:0] $end
$var reg 16 ," d3[15:0] $end
$var reg 16 -" reg_file_d1[15:0] $end
$var reg 16 ." reg_file_d2[15:0] $end
$var reg 16 /" reg_file_d3[15:0] $end
$var reg 16 0" pc[15:0] $end
$var reg 16 1" t1_in[15:0] $end
$var reg 16 2" t1_out[15:0] $end
$var reg 16 3" t2_in[15:0] $end
$var reg 16 4" t2_out[15:0] $end
$var reg 16 5" t3_in[15:0] $end
$var reg 16 6" t3_out[15:0] $end
$var reg 16 7" t4_in[15:0] $end
$var reg 16 8" t4_out[15:0] $end
$var reg 16 9" t5_in[15:0] $end
$var reg 16 :" t5_out[15:0] $end
$var reg 16 ;" se9_out[15:0] $end
$var reg 16 <" se_9_out[15:0] $end
$var reg 16 =" se6_out[15:0] $end
$var reg 7 >" mem_address[6:0] $end
$var reg 8 ?" pe_reg_in[7:0] $end
$var reg 8 @" pe_reg_out[7:0] $end
$var reg 8 A" set_pos_zero_out[7:0] $end
$var reg 3 B" pe_in[2:0] $end
$var reg 3 C" pe_out[2:0] $end
$var reg 3 D" a1[2:0] $end
$var reg 3 E" a2[2:0] $end
$var reg 3 F" a3[2:0] $end
$var reg 16 G" alu_in_0[15:0] $end
$var reg 16 H" alu_in_1[15:0] $end
$var reg 16 I" alu_out[15:0] $end
$scope module mem $end
$var reg 1 J" clk $end
$var reg 1 K" reset $end
$var reg 1 L" mem_write $end
$var reg 1 M" mem_read $end
$var reg 7 N" address[6:0] $end
$var reg 16 O" din[15:0] $end
$var reg 16 P" dout[15:0] $end
$upscope $end
$scope module reg_file $end
$var reg 1 Q" clk $end
$var reg 1 R" reset $end
$var reg 3 S" a1[2:0] $end
$var reg 3 T" a2[2:0] $end
$var reg 3 U" a3[2:0] $end
$var reg 16 V" dpc[15:0] $end
$var reg 16 W" d3[15:0] $end
$var reg 1 X" reg_write $end
$var reg 1 Y" pc_write $end
$var reg 16 Z" d1[15:0] $end
$var reg 16 [" d2[15:0] $end
$var reg 16 \" pc[15:0] $end
$comment reg_16x8 is not handled $end
$upscope $end
$scope module temporary_register_1 $end
$var reg 1 ]" clk $end
$var reg 1 ^" reset $end
$var reg 1 _" enable $end
$var reg 16 `" din[15:0] $end
$var reg 16 a" dout[15:0] $end
$upscope $end
$scope module temporary_register_2 $end
$var reg 1 b" clk $end
$var reg 1 c" reset $end
$var reg 1 d" enable $end
$var reg 16 e" din[15:0] $end
$var reg 16 f" dout[15:0] $end
$upscope $end
$scope module temporary_register_3 $end
$var reg 1 g" clk $end
$var reg 1 h" reset $end
$var reg 1 i" enable $end
$var reg 16 j" din[15:0] $end
$var reg 16 k" dout[15:0] $end
$upscope $end
$scope module temporary_register_4 $end
$var reg 1 l" clk $end
$var reg 1 m" reset $end
$var reg 1 n" enable $end
$var reg 16 o" din[15:0] $end
$var reg 16 p" dout[15:0] $end
$upscope $end
$scope module temporary_register_5 $end
$var reg 1 q" clk $end
$var reg 1 r" reset $end
$var reg 1 s" enable $end
$var reg 16 t" din[15:0] $end
$var reg 16 u" dout[15:0] $end
$upscope $end
$scope module instruction_register $end
$var reg 1 v" clk $end
$var reg 1 w" reset $end
$var reg 1 x" enable $end
$var reg 16 y" din[15:0] $end
$var reg 16 z" dout[15:0] $end
$upscope $end
$scope module sign_extender_pad_on_right9 $end
$var reg 9 {" x[8:0] $end
$var reg 16 |" y[15:0] $end
$upscope $end
$scope module sign_extender_pad_on_left9 $end
$var reg 9 }" x[8:0] $end
$var reg 16 !# y[15:0] $end
$upscope $end
$scope module sign_extender_pad_on_left6 $end
$var reg 6 "# x[5:0] $end
$var reg 16 ## y[15:0] $end
$upscope $end
$scope module pre $end
$var reg 8 $# x[7:0] $end
$var reg 3 %# y[2:0] $end
$upscope $end
$scope module spz $end
$var reg 8 &# x[7:0] $end
$var reg 3 '# pos[2:0] $end
$var reg 1 (# init $end
$var reg 8 )# y[7:0] $end
$upscope $end
$scope module pe_reg $end
$var reg 1 *# clk $end
$var reg 1 +# reset $end
$var reg 1 ,# enable $end
$var reg 8 -# din[7:0] $end
$var reg 8 .# dout[7:0] $end
$upscope $end
$scope module pe $end
$var reg 1 /# clk $end
$var reg 1 0# reset $end
$var reg 1 1# enable $end
$var reg 3 2# din[2:0] $end
$var reg 3 3# dout[2:0] $end
$upscope $end
$scope module alu1 $end
$var reg 1 4# clk $end
$var reg 1 5# reset $end
$var reg 1 6# alu_enable $end
$var reg 2 7# op_sel[1:0] $end
$var reg 16 8# x0[15:0] $end
$var reg 16 9# x1[15:0] $end
$var reg 1 :# c_enable $end
$var reg 1 ;# z_enable $end
$var reg 16 <# y[15:0] $end
$var reg 1 =# c_flag $end
$var reg 1 ># z_flag $end
$var reg 16 ?# add_result[15:0] $end
$var reg 16 @# result[15:0] $end
$var reg 1 A# gnd $end
$var reg 1 B# c_enable_r $end
$var reg 1 C# c_sig[0:0] $end
$var reg 1 D# z_sig[0:0] $end
$var reg 1 E# c_out[0:0] $end
$var reg 1 F# z_out[0:0] $end
$var reg 1 G# comparator_result[0:0] $end
$scope module add1 $end
$var reg 16 H# a[15:0] $end
$var reg 16 I# b[15:0] $end
$var reg 1 J# cin $end
$var reg 16 K# result[15:0] $end
$var reg 1 L# cout $end
$var reg 16 M# carry[15:0] $end
$var reg 1 N# temp_15 $end
$scope module fa1 $end
$var reg 1 O# a $end
$var reg 1 P# b $end
$var reg 1 Q# cin $end
$var reg 1 R# s $end
$var reg 1 S# cout $end
$upscope $end
$scope module fa2 $end
$var reg 1 T# a $end
$var reg 1 U# b $end
$var reg 1 V# cin $end
$var reg 1 W# s $end
$var reg 1 X# cout $end
$upscope $end
$scope module fa3 $end
$var reg 1 Y# a $end
$var reg 1 Z# b $end
$var reg 1 [# cin $end
$var reg 1 \# s $end
$var reg 1 ]# cout $end
$upscope $end
$scope module fa4 $end
$var reg 1 ^# a $end
$var reg 1 _# b $end
$var reg 1 `# cin $end
$var reg 1 a# s $end
$var reg 1 b# cout $end
$upscope $end
$scope module fa5 $end
$var reg 1 c# a $end
$var reg 1 d# b $end
$var reg 1 e# cin $end
$var reg 1 f# s $end
$var reg 1 g# cout $end
$upscope $end
$scope module fa6 $end
$var reg 1 h# a $end
$var reg 1 i# b $end
$var reg 1 j# cin $end
$var reg 1 k# s $end
$var reg 1 l# cout $end
$upscope $end
$scope module fa7 $end
$var reg 1 m# a $end
$var reg 1 n# b $end
$var reg 1 o# cin $end
$var reg 1 p# s $end
$var reg 1 q# cout $end
$upscope $end
$scope module fa8 $end
$var reg 1 r# a $end
$var reg 1 s# b $end
$var reg 1 t# cin $end
$var reg 1 u# s $end
$var reg 1 v# cout $end
$upscope $end
$scope module fa9 $end
$var reg 1 w# a $end
$var reg 1 x# b $end
$var reg 1 y# cin $end
$var reg 1 z# s $end
$var reg 1 {# cout $end
$upscope $end
$scope module fa10 $end
$var reg 1 |# a $end
$var reg 1 }# b $end
$var reg 1 !$ cin $end
$var reg 1 "$ s $end
$var reg 1 #$ cout $end
$upscope $end
$scope module fa11 $end
$var reg 1 $$ a $end
$var reg 1 %$ b $end
$var reg 1 &$ cin $end
$var reg 1 '$ s $end
$var reg 1 ($ cout $end
$upscope $end
$scope module fa12 $end
$var reg 1 )$ a $end
$var reg 1 *$ b $end
$var reg 1 +$ cin $end
$var reg 1 ,$ s $end
$var reg 1 -$ cout $end
$upscope $end
$scope module fa13 $end
$var reg 1 .$ a $end
$var reg 1 /$ b $end
$var reg 1 0$ cin $end
$var reg 1 1$ s $end
$var reg 1 2$ cout $end
$upscope $end
$scope module fa14 $end
$var reg 1 3$ a $end
$var reg 1 4$ b $end
$var reg 1 5$ cin $end
$var reg 1 6$ s $end
$var reg 1 7$ cout $end
$upscope $end
$scope module fa15 $end
$var reg 1 8$ a $end
$var reg 1 9$ b $end
$var reg 1 :$ cin $end
$var reg 1 ;$ s $end
$var reg 1 <$ cout $end
$upscope $end
$scope module fa16 $end
$var reg 1 =$ a $end
$var reg 1 >$ b $end
$var reg 1 ?$ cin $end
$var reg 1 @$ s $end
$var reg 1 A$ cout $end
$upscope $end
$upscope $end
$scope module cmp1 $end
$var reg 16 B$ x1[15:0] $end
$var reg 16 C$ x0[15:0] $end
$var reg 1 D$ z $end
$upscope $end
$scope module z $end
$var reg 1 E$ clk $end
$var reg 1 F$ reset $end
$var reg 1 G$ enable $end
$var reg 1 H$ din[0:0] $end
$var reg 1 I$ dout[0:0] $end
$upscope $end
$scope module c $end
$var reg 1 J$ clk $end
$var reg 1 K$ reset $end
$var reg 1 L$ enable $end
$var reg 1 M$ din[0:0] $end
$var reg 1 N$ dout[0:0] $end
$upscope $end
$upscope $end
$upscope $end
$upscope $end
$enddefinitions $end
#0
1!
1"
b0000000000000000 #
b0000000000000000 $
b00000 %
b0000000000000000 &
1'
1(
b0000000000000000 )
b0000000000000000 *
b0000000000000000 +
b00000 ,
0-
0.
b0000000000000000 /
00
01
02
03
04
05
06
07
08
09
0:
0;
0<
b00 =
b00 >
b00 ?
b000 @
b00 A
b000 B
b000 C
b11 D
UE
0F
0G
1H
1I
0J
0K
b0000000000000000 L
b00000 M
0N
0O
0P
0Q
0R
0S
0T
0U
0V
0W
0X
0Y
0Z
b00 [
b00 \
b00 ]
b000 ^
b00 _
b000 `
b000 a
b11 b
Uc
0d
0e
1f
1g
0h
0i
b0000000000000000 j
b0000000000000000 k
b0000000000000000 l
0m
0n
0o
0p
0q
0r
0s
0t
0u
0v
0w
0x
0y
b00 z
b00 {
b00 |
b000 }
b00 !"
b000 ""
b000 #"
b11 $"
U%"
0&"
0'"
b0000000000000000 ("
b1111111111111111 )"
b0000000000000000 *"
b0000000000000000 +"
b0000000000000000 ,"
b0000000000000000 -"
b0000000000000000 ."
b0000000000000000 /"
b0000000000000000 0"
b0000000000000000 1"
b0000000000000000 2"
b0000000000000000 3"
b0000000000000000 4"
b1111111111111111 5"
b0000000000000000 6"
b1111111111111111 7"
b0000000000000000 8"
b1111111111111111 9"
b0000000000000000 :"
b0000000000000000 ;"
b0000000000000000 <"
b0000000000000000 ="
b0000000 >"
bUUUUUUUU ?"
b00000000 @"
b-------- A"
b--- B"
b000 C"
b000 D"
b000 E"
b000 F"
b0000000000000000 G"
b0000000000000000 H"
b1111111111111111 I"
1J"
1K"
0L"
0M"
b0000000 N"
b0000000000000000 O"
b1111111111111111 P"
1Q"
1R"
b000 S"
b000 T"
b000 U"
b0000000000000000 V"
b0000000000000000 W"
0X"
0Y"
b0000000000000000 Z"
b0000000000000000 ["
b0000000000000000 \"
1]"
1^"
0_"
b0000000000000000 `"
b0000000000000000 a"
1b"
1c"
0d"
b0000000000000000 e"
b0000000000000000 f"
1g"
1h"
0i"
b1111111111111111 j"
b0000000000000000 k"
1l"
1m"
0n"
b1111111111111111 o"
b0000000000000000 p"
1q"
1r"
0s"
b1111111111111111 t"
b0000000000000000 u"
1v"
1w"
0x"
b1111111111111111 y"
b0000000000000000 z"
b000000000 {"
b0000000000000000 |"
b000000000 }"
b0000000000000000 !#
b000000 "#
b0000000000000000 ##
b00000000 $#
b--- %#
b00000000 &#
b--- '#
0(#
b-------- )#
1*#
1+#
0,#
b-------- -#
b00000000 .#
1/#
10#
01#
b--- 2#
b000 3#
14#
15#
U6#
b11 7#
b0000000000000000 8#
b0000000000000000 9#
0:#
0;#
b1111111111111111 <#
0=#
0>#
b0000000000000000 ?#
b1111111111111111 @#
0A#
0B#
b0 C#
b0 D#
b0 E#
b0 F#
b1 G#
b0000000000000000 H#
b0000000000000000 I#
0J#
b0000000000000000 K#
0L#
b0000000000000000 M#
0N#
0O#
0P#
0Q#
0R#
0S#
0T#
0U#
0V#
0W#
0X#
0Y#
0Z#
0[#
0\#
0]#
0^#
0_#
0`#
0a#
0b#
0c#
0d#
0e#
0f#
0g#
0h#
0i#
0j#
0k#
0l#
0m#
0n#
0o#
0p#
0q#
0r#
0s#
0t#
0u#
0v#
0w#
0x#
0y#
0z#
0{#
0|#
0}#
0!$
0"$
0#$
0$$
0%$
0&$
0'$
0($
0)$
0*$
0+$
0,$
0-$
0.$
0/$
00$
01$
02$
03$
04$
05$
06$
07$
08$
09$
0:$
0;$
0<$
0=$
0>$
0?$
0@$
0A$
b0000000000000000 B$
b0000000000000000 C$
1D$
1E$
1F$
0G$
b0 H$
b0 I$
1J$
1K$
0L$
b0 M$
b0 N$
#5000000
0!
0'
0H
0f
0J"
0Q"
0]"
0b"
0g"
0l"
0q"
0v"
0*#
0/#
04#
0E$
0J$
#10000000
1!
0"
1'
0(
14
b11 =
1H
0I
1R
b11 [
1f
0g
1q
b11 z
1J"
0K"
1M"
1Q"
0R"
1]"
0^"
1b"
0c"
1g"
0h"
1l"
0m"
1q"
0r"
1v"
0w"
1*#
0+#
1/#
00#
14#
05#
1E$
0F$
1J$
0K$
#15000000
0!
0'
0H
0f
0J"
0Q"
0]"
0b"
0g"
0l"
0q"
0v"
0*#
0/#
04#
0E$
0J$
#20000000
1!
b00001 %
1'
b00001 ,
12
04
19
b00 =
b111 B
b100 C
b00 D
1E
1H
b00001 M
1P
0R
1W
b00 [
b111 `
b100 a
b00 b
1c
1f
1o
0q
1v
b00 z
b111 ""
b100 #"
b00 $"
1%"
b0011001000000000 )"
b0000000000000001 5"
b0011001000000000 7"
b0000000000000001 9"
b0000000000000001 H"
b0000000000000001 I"
1J"
0M"
b0011001000000000 P"
1Q"
1]"
1b"
1g"
b0000000000000001 j"
1l"
b0011001000000000 o"
1q"
1s"
b0000000000000001 t"
1v"
1x"
b0011001000000000 y"
1*#
1/#
14#
16#
b00 7#
b0000000000000001 9#
b0000000000000001 <#
b0000000000000001 ?#
b0000000000000001 @#
b0 D#
b0 G#
b0000000000000001 I#
b0000000000000001 K#
1P#
1R#
b0000000000000001 C$
0D$
1E$
b0 H$
1J$
#25000000
0!
0'
0H
0f
0J"
0Q"
0]"
0b"
0g"
0l"
0q"
0v"
0*#
0/#
04#
0E$
0J$
#30000000
1!
b0011001000000000 $
b00010 %
1'
b0011001000000000 *
b00010 ,
b0011001000000000 /
02
09
b000 B
b000 C
b11 D
1H
b0011001000000000 L
b00010 M
0P
0W
b000 `
b000 a
b11 b
1f
b0011001000000000 j
0o
0v
b000 ""
b000 #"
b11 $"
b0011001000000000 ("
b1111111111111111 5"
b1111111111111111 9"
b0000000000000001 :"
b0000000000000000 H"
b1111111111111111 I"
1J"
1Q"
1]"
1b"
1g"
b1111111111111111 j"
1l"
1q"
0s"
b1111111111111111 t"
b0000000000000001 u"
1v"
0x"
b0011001000000000 z"
1*#
1/#
14#
b11 7#
b0000000000000000 9#
b1111111111111111 <#
b0000000000000000 ?#
b1111111111111111 @#
b1 G#
b0000000000000000 I#
b0000000000000000 K#
0P#
0R#
b0000000000000000 C$
1D$
1E$
1J$
#35000000
0!
0'
0H
0f
0J"
0Q"
0]"
0b"
0g"
0l"
0q"
0v"
0*#
0/#
04#
0E$
0J$
#40000000
1!
b00011 %
1'
b00011 ,
1H
b00011 M
1f
1J"
1Q"
1]"
1b"
1g"
1l"
1q"
1v"
1*#
1/#
14#
1E$
1J$
#45000000
0!
0'
0H
0f
0J"
0Q"
0]"
0b"
0g"
0l"
0q"
0v"
0*#
0/#
04#
0E$
0J$
#50000000
1!
b00111 %
1'
b00111 ,
10
b11 ?
b110 @
1H
b00111 M
1N
b11 ]
b110 ^
1f
1m
b11 |
b110 }
1J"
1Q"
1X"
1]"
1b"
1g"
1l"
1q"
1v"
1*#
1/#
14#
1E$
1J$
#55000000
0!
0'
0H
0f
0J"
0Q"
0]"
0b"
0g"
0l"
0q"
0v"
0*#
0/#
04#
0E$
0J$
#60000000
1!
b11000 %
1'
b11000 ,
00
11
b00 ?
b000 @
b01 A
1H
b11000 M
0N
1O
b00 ]
b000 ^
b01 _
1f
0m
1n
b00 |
b000 }
b01 !"
b0000000000000001 +"
1J"
1Q"
b0000000000000001 V"
0X"
1Y"
1]"
1b"
1g"
1l"
1q"
1v"
1*#
1/#
14#
1E$
1J$
#65000000
0!
0'
0H
0f
0J"
0Q"
0]"
0b"
0g"
0l"
0q"
0v"
0*#
0/#
04#
0E$
0J$
#70000000
1!
b00000 %
b0000000000000001 &
1'
b0000000000000001 +
b00000 ,
01
14
b11 =
b00 A
1H
b00000 M
0O
1R
b11 [
b00 _
1f
b0000000000000001 l
0n
1q
b11 z
b00 !"
b0000000000000000 +"
b0000000000000001 0"
b0000001 >"
1J"
1M"
b0000001 N"
1Q"
b0000000000000000 V"
0Y"
b0000000000000001 \"
1]"
1b"
1g"
1l"
1q"
1v"
1*#
1/#
14#
1E$
1J$
#75000000
0!
0'
0H
0f
0J"
0Q"
0]"
0b"
0g"
0l"
0q"
0v"
0*#
0/#
04#
0E$
0J$
#80000000
1!
b00001 %
1'
b00001 ,
12
04
19
b00 =
b111 B
b100 C
b00 D
1H
b00001 M
1P
0R
1W
b00 [
b111 `
b100 a
b00 b
1f
1o
0q
1v
b00 z
b111 ""
b100 #"
b00 $"
b0001001001000001 )"
b0000000000000010 5"
b0001001001000001 7"
b0000000000000010 9"
b0000000 >"
b0000000000000001 G"
b0000000000000001 H"
b0000000000000010 I"
1J"
0M"
b0000000 N"
b0001001001000001 P"
1Q"
1]"
1b"
1g"
b0000000000000010 j"
1l"
b0001001001000001 o"
1q"
1s"
b0000000000000010 t"
1v"
1x"
b0001001001000001 y"
1*#
1/#
14#
b00 7#
b0000000000000001 8#
b0000000000000001 9#
b0000000000000010 <#
b0000000000000010 ?#
b0000000000000010 @#
b0 D#
b0000000000000001 H#
b0000000000000001 I#
b0000000000000010 K#
b0000000000000001 M#
1O#
1P#
1S#
1V#
1W#
b0000000000000001 B$
b0000000000000001 C$
1E$
b0 H$
1J$
#85000000
0!
0'
0H
0f
0J"
0Q"
0]"
0b"
0g"
0l"
0q"
0v"
0*#
0/#
04#
0E$
0J$
#90000000
1!
b0001001001000001 $
b00010 %
1'
b0001001001000001 *
b00010 ,
b0001001001000001 /
02
09
b000 B
b000 C
b11 D
1H
b0001001001000001 L
b00010 M
0P
0W
b000 `
b000 a
b11 b
1f
b0001001001000001 j
0o
0v
b000 ""
b000 #"
b11 $"
b0001001001000001 ("
b1111111111111111 5"
b1111111111111111 9"
b0000000000000010 :"
b0010000010000000 ;"
b0000000001000001 <"
b0000000000000001 ="
b001 E"
b0000000000000000 G"
b0000000000000000 H"
b1111111111111111 I"
1J"
1Q"
b001 T"
1]"
1b"
1g"
b1111111111111111 j"
1l"
1q"
0s"
b1111111111111111 t"
b0000000000000010 u"
1v"
0x"
b0001001001000001 z"
b001000001 {"
b0010000010000000 |"
b001000001 }"
b0000000001000001 !#
b000001 "#
b0000000000000001 ##
b01000001 &#
1*#
1/#
14#
b11 7#
b0000000000000000 8#
b0000000000000000 9#
b1111111111111111 <#
b0000000000000000 ?#
b1111111111111111 @#
b0000000000000000 H#
b0000000000000000 I#
b0000000000000000 K#
b0000000000000000 M#
0O#
0P#
0S#
0V#
0W#
b0000000000000000 B$
b0000000000000000 C$
1E$
1J$
#95000000
0!
0'
0H
0f
0J"
0Q"
0]"
0b"
0g"
0l"
0q"
0v"
0*#
0/#
04#
0E$
0J$
#100000000
1!
b00011 %
1'
b00011 ,
1H
b00011 M
1f
1J"
1Q"
1]"
1b"
1g"
1l"
1q"
1v"
1*#
1/#
14#
1E$
1J$
#105000000
0!
0'
0H
0f
0J"
0Q"
0]"
0b"
0g"
0l"
0q"
0v"
0*#
0/#
04#
0E$
0J$
#110000000
1!
b00100 %
1'
b00100 ,
15
16
b10 >
1H
b00100 M
1S
1T
b10 \
1f
1r
1s
b10 {
b001 D"
1J"
1Q"
b001 S"
1]"
1_"
1b"
1d"
1g"
1l"
1q"
1v"
1*#
1/#
14#
1E$
1J$
#115000000
0!
0'
0H
0f
0J"
0Q"
0]"
0b"
0g"
0l"
0q"
0v"
0*#
0/#
04#
0E$
0J$
#120000000
1!
b01110 %
1'
b01110 ,
05
06
17
b00 >
b110 B
b101 C
b00 D
1F
1G
1H
b01110 M
0S
0T
1U
b00 \
b110 `
b101 a
b00 b
1d
1e
1f
0r
0s
1t
b00 {
b110 ""
b101 #"
b00 $"
1&"
1'"
b0000000000000001 5"
b0000000000000001 9"
b000 D"
b0000000000000001 H"
b0000000000000001 I"
1J"
1Q"
b000 S"
1]"
0_"
1b"
0d"
1g"
1i"
b0000000000000001 j"
1l"
1q"
b0000000000000001 t"
1v"
1*#
1/#
14#
b00 7#
b0000000000000001 9#
1:#
1;#
b0000000000000001 <#
b0000000000000001 ?#
b0000000000000001 @#
1B#
b0 D#
b0 G#
b0000000000000001 I#
b0000000000000001 K#
1P#
1R#
b0000000000000001 C$
0D$
1E$
1G$
b0 H$
1J$
1L$
#125000000
0!
0'
0H
0f
0J"
0Q"
0]"
0b"
0g"
0l"
0q"
0v"
0*#
0/#
04#
0E$
0J$
#130000000
1!
b0000000000000001 #
b00110 %
1'
b0000000000000001 )
b00110 ,
10
07
b11 ?
b111 @
b000 B
b000 C
b11 D
0F
0G
1H
b00110 M
1N
0U
b11 ]
b111 ^
b000 `
b000 a
b11 b
0d
0e
1f
b0000000000000001 k
1m
0t
b11 |
b111 }
b000 ""
b000 #"
b11 $"
0&"
0'"
b0000000000000001 /"
b1111111111111111 5"
b0000000000000001 6"
b1111111111111111 9"
b0000000000000000 H"
b1111111111111111 I"
1J"
1Q"
b0000000000000001 W"
1X"
1]"
1b"
1g"
0i"
b1111111111111111 j"
b0000000000000001 k"
1l"
1q"
b1111111111111111 t"
1v"
1*#
1/#
14#
b11 7#
b0000000000000000 9#
0:#
0;#
b1111111111111111 <#
b0000000000000000 ?#
b1111111111111111 @#
0B#
b1 G#
b0000000000000000 I#
b0000000000000000 K#
0P#
0R#
b0000000000000000 C$
1D$
1E$
0G$
1J$
0L$
#135000000
0!
0'
0H
0f
0J"
0Q"
0]"
0b"
0g"
0l"
0q"
0v"
0*#
0/#
04#
0E$
0J$
#140000000
1!
b11000 %
1'
b11000 ,
00
11
b00 ?
b000 @
b01 A
1H
b11000 M
0N
1O
b00 ]
b000 ^
b01 _
1f
0m
1n
b00 |
b000 }
b01 !"
b0000000000000010 +"
b0000000000000001 -"
b0000000000000000 /"
b0000000000000001 1"
1J"
1Q"
b0000000000000010 V"
b0000000000000000 W"
0X"
1Y"
b0000000000000001 Z"
1]"
b0000000000000001 `"
1b"
1g"
1l"
1q"
1v"
1*#
1/#
14#
1E$
1J$
#145000000
0!
0'
0H
0f
0J"
0Q"
0]"
0b"
0g"
0l"
0q"
0v"
0*#
0/#
04#
0E$
0J$
#150000000
1!
b00000 %
b0000000000000010 &
1'
b0000000000000010 +
b00000 ,
01
14
b11 =
b00 A
1H
b00000 M
0O
1R
b11 [
b00 _
1f
b0000000000000010 l
0n
1q
b11 z
b00 !"
b0000000000000000 +"
b0000000000000010 0"
b0000010 >"
1J"
1M"
b0000010 N"
1Q"
b0000000000000000 V"
0Y"
b0000000000000010 \"
1]"
1b"
1g"
1l"
1q"
1v"
1*#
1/#
14#
1E$
1J$
#155000000
0!
0'
0H
0f
0J"
0Q"
0]"
0b"
0g"
0l"
0q"
0v"
0*#
0/#
04#
0E$
0J$
#160000000
1!
b00001 %
1'
b00001 ,
12
04
19
b00 =
b111 B
b100 C
b00 D
1H
b00001 M
1P
0R
1W
b00 [
b111 `
b100 a
b00 b
1f
1o
0q
1v
b00 z
b111 ""
b100 #"
b00 $"
b0011010000000000 )"
b0000000000000011 5"
b0011010000000000 7"
b0000000000000011 9"
b0000000 >"
b0000000000000010 G"
b0000000000000001 H"
b0000000000000011 I"
1J"
0M"
b0000000 N"
b0011010000000000 P"
1Q"
1]"
1b"
1g"
b0000000000000011 j"
1l"
b0011010000000000 o"
1q"
1s"
b0000000000000011 t"
1v"
1x"
b0011010000000000 y"
1*#
1/#
14#
b00 7#
b0000000000000010 8#
b0000000000000001 9#
b0000000000000011 <#
b0000000000000011 ?#
b0000000000000011 @#
b0 D#
b0 G#
b0000000000000010 H#
b0000000000000001 I#
b0000000000000011 K#
1P#
1R#
1T#
1W#
b0000000000000010 B$
b0000000000000001 C$
0D$
1E$
b0 H$
1J$
#165000000
0!
0'
0H
0f
0J"
0Q"
0]"
0b"
0g"
0l"
0q"
0v"
0*#
0/#
04#
0E$
0J$
#170000000
1!
b0011010000000000 $
b00010 %
1'
b0011010000000000 *
b00010 ,
b0011010000000000 /
02
09
b000 B
b000 C
b11 D
1H
b0011010000000000 L
b00010 M
0P
0W
b000 `
b000 a
b11 b
1f
b0011010000000000 j
0o
0v
b000 ""
b000 #"
b11 $"
b0011010000000000 ("
b1111111111111111 5"
b1111111111111111 9"
b0000000000000011 :"
b0000000000000000 ;"
b0000000000000000 <"
b0000000000000000 ="
b000 E"
b0000000000000000 G"
b0000000000000000 H"
b1111111111111111 I"
1J"
1Q"
b000 T"
1]"
1b"
1g"
b1111111111111111 j"
1l"
1q"
0s"
b1111111111111111 t"
b0000000000000011 u"
1v"
0x"
b0011010000000000 z"
b000000000 {"
b0000000000000000 |"
b000000000 }"
b0000000000000000 !#
b000000 "#
b0000000000000000 ##
b00000000 &#
1*#
1/#
14#
b11 7#
b0000000000000000 8#
b0000000000000000 9#
b1111111111111111 <#
b0000000000000000 ?#
b1111111111111111 @#
b1 G#
b0000000000000000 H#
b0000000000000000 I#
b0000000000000000 K#
0P#
0R#
0T#
0W#
b0000000000000000 B$
b0000000000000000 C$
1D$
1E$
1J$
#175000000
0!
0'
0H
0f
0J"
0Q"
0]"
0b"
0g"
0l"
0q"
0v"
0*#
0/#
04#
0E$
0J$
#180000000
1!
b00011 %
1'
b00011 ,
1H
b00011 M
1f
1J"
1Q"
1]"
1b"
1g"
1l"
1q"
1v"
1*#
1/#
14#
1E$
1J$
