Adder.vcd
$date
  Thu Oct 13 18:18:07 2016
$end
$version
  GHDL v0
$end
$timescale
  1 fs
$end
$var reg 1 ! a $end
$var reg 1 " b $end
$var reg 1 # cin $end
$var reg 1 $ s $end
$var reg 1 % cout $end
$scope module fa1 $end
$var reg 1 & a $end
$var reg 1 ' b $end
$var reg 1 ( cin $end
$var reg 1 ) s $end
$var reg 1 * cout $end
$upscope $end
$enddefinitions $end
#0
1!
0"
0#
1$
0%
1&
0'
0(
1)
0*
#10000000
1"
0$
1%
1'
0)
1*
#20000000
0!
0"
0%
0&
0'
0*
#30000000
1"
1$
1'
1)
#40000000
1!
0"
1#
0$
1%
1&
0'
1(
0)
1*
#50000000
1"
1$
1'
1)
#60000000
0!
0"
0%
0&
0'
0*
#70000000
1"
0$
1%
1'
0)
1*
